[ "--- Test Summary\ntest suite for glow/compiler/project: OK\ntest suite for glow/compiler/project/project: OK\ntest suite for glow/compiler/multipass: OK\ntest suite for glow/compiler/passes: OK\ntest suite for glow/compiler/typecheck: OK\ntest suite for glow/t/cli-integration: OK\nOK",
  "--- Test Summary\nintegration test for ethereum/buy-sig: OK\nintegration test for ethereum/coin-flip: OK\nintegration test checking escrow return on timeout: OK\nintegration test for ethereum/rps_simple: OK\nOK"
]
